{
	"log": {
		"version": "1.2",
		"creator": {
			"name": "Insomnia REST Client",
			"version": "insomnia.desktop.app:v11.2.0"
		},
		"entries": [
			{
				"startedDateTime": "2025-07-07T00:45:21.575Z",
				"time": 2.957,
				"request": {
					"method": "DELETE",
					"url": "http://localhost:8080/api/v1/printers/3",
					"httpVersion": "HTTP/1.1",
					"cookies": [
						{
							"name": "JSESSIONID",
							"value": "9618481D48B85B41668ABF29AE897C90",
							"path": "/",
							"domain": "localhost",
							"httpOnly": true
						}
					],
					"headers": [
						{
							"name": "User-Agent",
							"value": "insomnia/11.2.0"
						},
						{
							"name": "Authorization",
							"value": "Bearer eyJhbGciOiJIUzUxMiJ9.eyJzdWIiOiJhZG1pbiIsInJvbGUiOiJBRE1JTiIsImlhdCI6MTc1MTg0ODYzNywiZXhwIjoxNzUxOTM1MDM3fQ.Q8-Qb8XOMcJ704zSJZqZxP2DAF2Xo-bVZbqP43TU0ErETxhvH4yOZOy2SbgdXQ0Rn8uk_QXs3GMFuyL6VKbHGQ"
						}
					],
					"queryString": [],
					"postData": {
						"mimeType": "",
						"text": ""
					},
					"headersSize": -1,
					"bodySize": -1
				},
				"response": {
					"status": 204,
					"statusText": "",
					"httpVersion": "HTTP/1.1",
					"cookies": [],
					"headers": [
						{
							"name": "Date",
							"value": "Fri, 04 Jul 2025 01:59:25 GMT"
						}
					],
					"content": {
						"size": 0,
						"mimeType": "",
						"text": ""
					},
					"redirectURL": "",
					"headersSize": -1,
					"bodySize": -1
				},
				"cache": {},
				"timings": {
					"blocked": -1,
					"dns": -1,
					"connect": -1,
					"send": 0,
					"wait": 2.957,
					"receive": 0,
					"ssl": -1
				},
				"comment": "Delete impressora"
			},
			{
				"startedDateTime": "2025-07-07T00:45:21.575Z",
				"time": 525.9549999999999,
				"request": {
					"method": "POST",
					"url": "http://localhost:8080/api/v1/printers",
					"httpVersion": "HTTP/1.1",
					"cookies": [
						{
							"name": "JSESSIONID",
							"value": "9618481D48B85B41668ABF29AE897C90",
							"path": "/",
							"domain": "localhost",
							"httpOnly": true
						}
					],
					"headers": [
						{
							"name": "Content-Type",
							"value": "application/json"
						},
						{
							"name": "User-Agent",
							"value": "insomnia/11.2.0"
						},
						{
							"name": "Authorization",
							"value": "Bearer eyJhbGciOiJIUzUxMiJ9.eyJzdWIiOiJhZG1pbiIsInJvbGUiOiJBRE1JTiIsImlhdCI6MTc1MTg0ODYzNywiZXhwIjoxNzUxOTM1MDM3fQ.Q8-Qb8XOMcJ704zSJZqZxP2DAF2Xo-bVZbqP43TU0ErETxhvH4yOZOy2SbgdXQ0Rn8uk_QXs3GMFuyL6VKbHGQ"
						}
					],
					"queryString": [],
					"postData": {
						"mimeType": "application/json",
						"text": "{\n  \"name\": \"Impressora Teste\",\n  \"model\": \"HP LaserJet 1020\",\n  \"location\": \"Sala 101\",\n  \"status\": \"ONLINE\",\n  \"paperCapacity\": 250\n}"
					},
					"headersSize": -1,
					"bodySize": -1
				},
				"response": {
					"status": 200,
					"statusText": "",
					"httpVersion": "HTTP/1.1",
					"cookies": [],
					"headers": [
						{
							"name": "Vary",
							"value": "Origin"
						},
						{
							"name": "Vary",
							"value": "Access-Control-Request-Method"
						},
						{
							"name": "Vary",
							"value": "Access-Control-Request-Headers"
						},
						{
							"name": "X-Content-Type-Options",
							"value": "nosniff"
						},
						{
							"name": "X-XSS-Protection",
							"value": "0"
						},
						{
							"name": "Cache-Control",
							"value": "no-cache, no-store, max-age=0, must-revalidate"
						},
						{
							"name": "Pragma",
							"value": "no-cache"
						},
						{
							"name": "Expires",
							"value": "0"
						},
						{
							"name": "X-Frame-Options",
							"value": "DENY"
						},
						{
							"name": "Content-Type",
							"value": "application/json"
						},
						{
							"name": "Transfer-Encoding",
							"value": "chunked"
						},
						{
							"name": "Date",
							"value": "Mon, 07 Jul 2025 00:39:58 GMT"
						}
					],
					"content": {
						"size": 221,
						"mimeType": "application/json",
						"text": "{\"id\":\"e28e111f-93b2-4c78-85e0-519353e25e5d\",\"name\":\"Impressora Teste\",\"model\":\"HP LaserJet 1020\",\"location\":\"Sala 101\",\"status\":\"ONLINE\",\"paperCapacity\":250,\"createdAt\":\"2025-07-07T00:39:58.125149819\",\"lastUpdated\":null}"
					},
					"redirectURL": "",
					"headersSize": -1,
					"bodySize": -1
				},
				"cache": {},
				"timings": {
					"blocked": -1,
					"dns": -1,
					"connect": -1,
					"send": 0,
					"wait": 525.9549999999999,
					"receive": 0,
					"ssl": -1
				},
				"comment": "Update Impressoras"
			},
			{
				"startedDateTime": "2025-07-07T00:45:21.575Z",
				"time": 191.476,
				"request": {
					"method": "PUT",
					"url": "http://localhost:8080/api/v1/printers/36dd0481-7a67-4a55-9d44-9f68c96c45d4",
					"httpVersion": "HTTP/1.1",
					"cookies": [
						{
							"name": "JSESSIONID",
							"value": "9618481D48B85B41668ABF29AE897C90",
							"path": "/",
							"domain": "localhost",
							"httpOnly": true
						}
					],
					"headers": [
						{
							"name": "Content-Type",
							"value": "application/json"
						},
						{
							"name": "User-Agent",
							"value": "insomnia/11.2.0"
						}
					],
					"queryString": [],
					"postData": {
						"mimeType": "application/json",
						"text": "{\n  \"name\": \"Impressora Teste\",\n  \"model\": \"HP LaserJet 1020\",\n  \"location\": \"Sala 101\",\n  \"status\": \"ONLINE\",\n  \"paperCapacity\": 250\n}"
					},
					"headersSize": -1,
					"bodySize": -1
				},
				"response": {
					"status": 200,
					"statusText": "",
					"httpVersion": "HTTP/1.1",
					"cookies": [],
					"headers": [
						{
							"name": "Content-Type",
							"value": "application/json"
						},
						{
							"name": "Transfer-Encoding",
							"value": "chunked"
						},
						{
							"name": "Date",
							"value": "Fri, 04 Jul 2025 02:16:42 GMT"
						}
					],
					"content": {
						"size": 175,
						"mimeType": "application/json",
						"text": "{\"id\":1,\"name\":\"Brother HL-L62301W\",\"model\":\"HL-L6200DW\",\"location\":\"Departamento Financeiro\",\"status\":\"OFFLINE\",\"paperLevel\":30,\"lastUpdated\":\"2025-07-03T23:16:42.311146224\"}"
					},
					"redirectURL": "",
					"headersSize": -1,
					"bodySize": -1
				},
				"cache": {},
				"timings": {
					"blocked": -1,
					"dns": -1,
					"connect": -1,
					"send": 0,
					"wait": 191.476,
					"receive": 0,
					"ssl": -1
				},
				"comment": "Update Impressoras"
			},
			{
				"startedDateTime": "2025-07-07T00:45:21.575Z",
				"time": 0.335,
				"request": {
					"method": "GET",
					"url": "http://localhost:8080/api/v1/sync/statistics",
					"httpVersion": "HTTP/1.1",
					"cookies": [
						{
							"name": "JSESSIONID",
							"value": "9618481D48B85B41668ABF29AE897C90",
							"path": "/",
							"domain": "localhost",
							"httpOnly": true
						}
					],
					"headers": [
						{
							"name": "User-Agent",
							"value": "insomnia/11.2.0"
						},
						{
							"name": "Authorization",
							"value": "Bearer eyJhbGciOiJIUzUxMiJ9.eyJzdWIiOiJhZG1pbiIsInJvbGUiOiJBRE1JTiIsImlhdCI6MTc1MTg0ODYzNywiZXhwIjoxNzUxOTM1MDM3fQ.Q8-Qb8XOMcJ704zSJZqZxP2DAF2Xo-bVZbqP43TU0ErETxhvH4yOZOy2SbgdXQ0Rn8uk_QXs3GMFuyL6VKbHGQ"
						}
					],
					"queryString": [],
					"postData": {
						"mimeType": "",
						"text": ""
					},
					"headersSize": -1,
					"bodySize": -1
				},
				"response": {
					"status": 0,
					"statusText": "Error",
					"httpVersion": "HTTP/1.1",
					"cookies": [],
					"headers": [],
					"content": {
						"size": 0,
						"mimeType": "",
						"text": ""
					},
					"redirectURL": "",
					"headersSize": -1,
					"bodySize": -1
				},
				"cache": {},
				"timings": {
					"blocked": -1,
					"dns": -1,
					"connect": -1,
					"send": 0,
					"wait": 0.335,
					"receive": 0,
					"ssl": -1
				},
				"comment": "statistics"
			},
			{
				"startedDateTime": "2025-07-07T00:45:21.575Z",
				"time": 6.113,
				"request": {
					"method": "GET",
					"url": "http://localhost:8080/api/v1/printers/36dd0481-7a67-4a55-9d44-9f68c96c45d4/status",
					"httpVersion": "HTTP/1.1",
					"cookies": [
						{
							"name": "JSESSIONID",
							"value": "9618481D48B85B41668ABF29AE897C90",
							"path": "/",
							"domain": "localhost",
							"httpOnly": true
						}
					],
					"headers": [
						{
							"name": "Content-Type",
							"value": "application/json"
						},
						{
							"name": "User-Agent",
							"value": "insomnia/11.2.0"
						},
						{
							"name": "Authorization",
							"value": "Bearer eyJhbGciOiJIUzUxMiJ9.eyJzdWIiOiJhZG1pbiIsInJvbGUiOiJBRE1JTiIsImlhdCI6MTc1MTg0ODYzNywiZXhwIjoxNzUxOTM1MDM3fQ.Q8-Qb8XOMcJ704zSJZqZxP2DAF2Xo-bVZbqP43TU0ErETxhvH4yOZOy2SbgdXQ0Rn8uk_QXs3GMFuyL6VKbHGQ"
						}
					],
					"queryString": [],
					"postData": {
						"mimeType": "application/json",
						"text": ""
					},
					"headersSize": -1,
					"bodySize": -1
				},
				"response": {
					"status": 200,
					"statusText": "",
					"httpVersion": "HTTP/1.1",
					"cookies": [],
					"headers": [
						{
							"name": "Vary",
							"value": "Origin"
						},
						{
							"name": "Vary",
							"value": "Access-Control-Request-Method"
						},
						{
							"name": "Vary",
							"value": "Access-Control-Request-Headers"
						},
						{
							"name": "X-Content-Type-Options",
							"value": "nosniff"
						},
						{
							"name": "X-XSS-Protection",
							"value": "0"
						},
						{
							"name": "Cache-Control",
							"value": "no-cache, no-store, max-age=0, must-revalidate"
						},
						{
							"name": "Pragma",
							"value": "no-cache"
						},
						{
							"name": "Expires",
							"value": "0"
						},
						{
							"name": "X-Frame-Options",
							"value": "DENY"
						},
						{
							"name": "Content-Type",
							"value": "application/json"
						},
						{
							"name": "Transfer-Encoding",
							"value": "chunked"
						},
						{
							"name": "Date",
							"value": "Mon, 07 Jul 2025 00:41:52 GMT"
						}
					],
					"content": {
						"size": 35,
						"mimeType": "application/json",
						"text": "{\"status\":\"OFFLINE\",\"paperLevel\":6}"
					},
					"redirectURL": "",
					"headersSize": -1,
					"bodySize": -1
				},
				"cache": {},
				"timings": {
					"blocked": -1,
					"dns": -1,
					"connect": -1,
					"send": 0,
					"wait": 6.113,
					"receive": 0,
					"ssl": -1
				},
				"comment": "Get status impressora por UUID"
			},
			{
				"startedDateTime": "2025-07-07T00:45:21.575Z",
				"time": 11.887,
				"request": {
					"method": "GET",
					"url": "http://localhost:8080/api/v1/printers/36dd0481-7a67-4a55-9d44-9f68c96c45d4",
					"httpVersion": "HTTP/1.1",
					"cookies": [
						{
							"name": "JSESSIONID",
							"value": "9618481D48B85B41668ABF29AE897C90",
							"path": "/",
							"domain": "localhost",
							"httpOnly": true
						}
					],
					"headers": [
						{
							"name": "User-Agent",
							"value": "insomnia/11.2.0"
						},
						{
							"name": "Authorization",
							"value": "Bearer eyJhbGciOiJIUzUxMiJ9.eyJzdWIiOiJhZG1pbiIsInJvbGUiOiJBRE1JTiIsImlhdCI6MTc1MTg0ODYzNywiZXhwIjoxNzUxOTM1MDM3fQ.Q8-Qb8XOMcJ704zSJZqZxP2DAF2Xo-bVZbqP43TU0ErETxhvH4yOZOy2SbgdXQ0Rn8uk_QXs3GMFuyL6VKbHGQ"
						}
					],
					"queryString": [],
					"postData": {
						"mimeType": "",
						"text": ""
					},
					"headersSize": -1,
					"bodySize": -1
				},
				"response": {
					"status": 200,
					"statusText": "",
					"httpVersion": "HTTP/1.1",
					"cookies": [],
					"headers": [
						{
							"name": "Vary",
							"value": "Origin"
						},
						{
							"name": "Vary",
							"value": "Access-Control-Request-Method"
						},
						{
							"name": "Vary",
							"value": "Access-Control-Request-Headers"
						},
						{
							"name": "X-Content-Type-Options",
							"value": "nosniff"
						},
						{
							"name": "X-XSS-Protection",
							"value": "0"
						},
						{
							"name": "Cache-Control",
							"value": "no-cache, no-store, max-age=0, must-revalidate"
						},
						{
							"name": "Pragma",
							"value": "no-cache"
						},
						{
							"name": "Expires",
							"value": "0"
						},
						{
							"name": "X-Frame-Options",
							"value": "DENY"
						},
						{
							"name": "Content-Type",
							"value": "application/json"
						},
						{
							"name": "Transfer-Encoding",
							"value": "chunked"
						},
						{
							"name": "Date",
							"value": "Mon, 07 Jul 2025 00:42:32 GMT"
						}
					],
					"content": {
						"size": 270,
						"mimeType": "application/json",
						"text": "{\"id\":\"36dd0481-7a67-4a55-9d44-9f68c96c45d4\",\"name\":\"Impressora 995\",\"model\":\"Incredible Marble Table\",\"location\":\"90271 - Western Road - Markscester\",\"status\":\"ONLINE\",\"paperCapacity\":310,\"createdAt\":\"2025-07-07T00:00:00.191\",\"lastUpdated\":\"2025-07-07T00:36:04.335468\"}"
					},
					"redirectURL": "",
					"headersSize": -1,
					"bodySize": -1
				},
				"cache": {},
				"timings": {
					"blocked": -1,
					"dns": -1,
					"connect": -1,
					"send": 0,
					"wait": 11.887,
					"receive": 0,
					"ssl": -1
				},
				"comment": "Get  impressora por UUID"
			},
			{
				"startedDateTime": "2025-07-07T00:45:21.575Z",
				"time": 85.04100000000001,
				"request": {
					"method": "GET",
					"url": "http://localhost:8080/api/v1/printers?page=0",
					"httpVersion": "HTTP/1.1",
					"cookies": [
						{
							"name": "JSESSIONID",
							"value": "9618481D48B85B41668ABF29AE897C90",
							"path": "/",
							"domain": "localhost",
							"httpOnly": true
						}
					],
					"headers": [
						{
							"name": "Content-Type",
							"value": "application/json"
						},
						{
							"name": "User-Agent",
							"value": "insomnia/11.2.0"
						},
						{
							"name": "Authorization",
							"value": "Bearer eyJhbGciOiJIUzUxMiJ9.eyJzdWIiOiJhZG1pbiIsInJvbGUiOiJBRE1JTiIsImlhdCI6MTc1MTg0ODYzNywiZXhwIjoxNzUxOTM1MDM3fQ.Q8-Qb8XOMcJ704zSJZqZxP2DAF2Xo-bVZbqP43TU0ErETxhvH4yOZOy2SbgdXQ0Rn8uk_QXs3GMFuyL6VKbHGQ"
						}
					],
					"queryString": [],
					"postData": {
						"mimeType": "application/json",
						"text": "{\n  \"session\": \"default\",\n  \"chatId\": \"557183817068@c.us\",\n  \"text\": \"Hi there!\"\n}"
					},
					"headersSize": -1,
					"bodySize": -1
				},
				"response": {
					"status": 200,
					"statusText": "",
					"httpVersion": "HTTP/1.1",
					"cookies": [],
					"headers": [
						{
							"name": "Vary",
							"value": "Origin"
						},
						{
							"name": "Vary",
							"value": "Access-Control-Request-Method"
						},
						{
							"name": "Vary",
							"value": "Access-Control-Request-Headers"
						},
						{
							"name": "X-Content-Type-Options",
							"value": "nosniff"
						},
						{
							"name": "X-XSS-Protection",
							"value": "0"
						},
						{
							"name": "Cache-Control",
							"value": "no-cache, no-store, max-age=0, must-revalidate"
						},
						{
							"name": "Pragma",
							"value": "no-cache"
						},
						{
							"name": "Expires",
							"value": "0"
						},
						{
							"name": "X-Frame-Options",
							"value": "DENY"
						},
						{
							"name": "Content-Type",
							"value": "application/json"
						},
						{
							"name": "Transfer-Encoding",
							"value": "chunked"
						},
						{
							"name": "Date",
							"value": "Mon, 07 Jul 2025 00:39:05 GMT"
						}
					],
					"content": {
						"size": 5720,
						"mimeType": "application/json",
						"text": "{\"content\":[{\"id\":\"36dd0481-7a67-4a55-9d44-9f68c96c45d4\",\"name\":\"Impressora 995\",\"model\":\"Incredible Marble Table\",\"location\":\"90271 - Western Road - Markscester\",\"status\":\"ONLINE\",\"paperCapacity\":310,\"createdAt\":\"2025-07-07T00:00:00.191\",\"lastUpdated\":\"2025-07-07T00:36:04.335468\"},{\"id\":\"15f620e3-dec5-44bd-9084-30bfb354d714\",\"name\":\"Impressora 994\",\"model\":\"Ergonomic Silk Chair\",\"location\":\"8332 - Rippin Lane - North Kian\",\"status\":\"ONLINE\",\"paperCapacity\":337,\"createdAt\":\"2025-07-07T00:00:00.191\",\"lastUpdated\":\"2025-07-07T00:35:49.4679\"},{\"id\":\"1d84f631-c9c8-4a67-b7a6-f11c13c73730\",\"name\":\"Impressora 695\",\"model\":\"Practical Granite Computer\",\"location\":\"83497 - Adams Street - North Deondrechester\",\"status\":\"ONLINE\",\"paperCapacity\":250,\"createdAt\":\"2025-07-07T00:00:00.191\",\"lastUpdated\":\"2025-07-07T00:36:04.611552\"},{\"id\":\"2680a0fb-c30c-4d04-a552-040a0a301b68\",\"name\":\"Impressora 457\",\"model\":\"Ergonomic Bamboo Towels\",\"location\":\"660 - Buford Loaf - North Clinton\",\"status\":\"ONLINE\",\"paperCapacity\":267,\"createdAt\":\"2025-07-07T00:00:00.191\",\"lastUpdated\":\"2025-07-07T00:35:53.139073\"},{\"id\":\"125eccc6-0bb6-45e1-b784-3387b9b28fb9\",\"name\":\"Impressora 396\",\"model\":\"Frozen Silk Bacon\",\"location\":\"7141 - Corkery Groves - Edwardochester\",\"status\":\"ONLINE\",\"paperCapacity\":237,\"createdAt\":\"2025-07-07T00:00:00.191\",\"lastUpdated\":\"2025-07-07T00:35:52.120817\"},{\"id\":\"1ff504e3-3a2f-4ae0-aa9e-4a21e35aaf88\",\"name\":\"Impressora 949\",\"model\":\"Fresh Steel Chips\",\"location\":\"9510 - North Avenue - Abshireville\",\"status\":\"ONLINE\",\"paperCapacity\":239,\"createdAt\":\"2025-07-07T00:00:00.191\",\"lastUpdated\":\"2025-07-07T00:35:57.755985\"},{\"id\":\"106f2d4a-1aba-45dc-b99e-ca55f12b691c\",\"name\":\"Impressora 401\",\"model\":\"Practical Aluminum Bike\",\"location\":\"52928 - Sierra Rue - Port Velma\",\"status\":\"ONLINE\",\"paperCapacity\":398,\"createdAt\":\"2025-07-07T00:00:00.191\",\"lastUpdated\":\"2025-07-07T00:35:50.583916\"},{\"id\":\"0f674471-7af3-4cc1-b208-a59736e0ce14\",\"name\":\"Impressora 158\",\"model\":\"Rustic Ceramic Pizza\",\"location\":\"86680 - Richard Light - Eugeniaberg\",\"status\":\"ONLINE\",\"paperCapacity\":130,\"createdAt\":\"2025-07-07T00:00:00.191\",\"lastUpdated\":\"2025-07-07T00:35:52.583896\"},{\"id\":\"0f224427-f06d-487e-8096-0039288043c6\",\"name\":\"Impressora 192\",\"model\":\"Oriental Bronze Shirt\",\"location\":\"462 - The Spinney - Bogisichborough\",\"status\":\"ONLINE\",\"paperCapacity\":291,\"createdAt\":\"2025-07-07T00:00:00.191\",\"lastUpdated\":\"2025-07-07T00:35:50.044408\"},{\"id\":\"1abaad0e-83b0-4235-bd96-beaddf2ec38f\",\"name\":\"Impressora 333\",\"model\":\"Licensed Silk Tuna\",\"location\":\"570 - Lina Wall - Kuvalisworth\",\"status\":\"OFFLINE\",\"paperCapacity\":343,\"createdAt\":\"2025-07-07T00:00:00.191\",\"lastUpdated\":\"2025-07-07T00:36:08.385585\"},{\"id\":\"33f67c3a-9067-45ba-91ff-05566e74d53e\",\"name\":\"Impressora 926\",\"model\":\"Intelligent Aluminum Bacon\",\"location\":\"168 - Daija Lodge - Kaystad\",\"status\":\"ONLINE\",\"paperCapacity\":149,\"createdAt\":\"2025-07-07T00:00:00.191\",\"lastUpdated\":\"2025-07-07T00:36:11.140146\"},{\"id\":\"0076438b-20ec-40a0-9310-f13c144db938\",\"name\":\"Impressora 604\",\"model\":\"Handcrafted Metal Computer\",\"location\":\"7480 - Gerhold Ranch - South Delphineview\",\"status\":\"ONLINE\",\"paperCapacity\":306,\"createdAt\":\"2025-07-07T00:00:00.191\",\"lastUpdated\":\"2025-07-07T00:35:57.350233\"},{\"id\":\"08aaf122-6963-4ff9-90a2-b3efe1547b34\",\"name\":\"Impressora 969\",\"model\":\"Small Plastic Tuna\",\"location\":\"25217 - School Street - Willmsfort\",\"status\":\"ONLINE\",\"paperCapacity\":350,\"createdAt\":\"2025-07-07T00:00:00.191\",\"lastUpdated\":\"2025-07-07T00:35:58.57822\"},{\"id\":\"0747fbc6-930d-45a4-9768-ea770b8b68e3\",\"name\":\"Impressora 740\",\"model\":\"Refined Granite Gloves\",\"location\":\"601 - Devonshire Road - Westminster\",\"status\":\"ONLINE\",\"paperCapacity\":327,\"createdAt\":\"2025-07-07T00:00:00.191\",\"lastUpdated\":\"2025-07-07T00:35:59.07915\"},{\"id\":\"202a30e1-6106-4f89-9941-866a30a4b8b3\",\"name\":\"Impressora 462\",\"model\":\"Licensed Silk Soap\",\"location\":\"49008 - Commercial Road - Balistreristad\",\"status\":\"ONLINE\",\"paperCapacity\":306,\"createdAt\":\"2025-07-07T00:00:00.191\",\"lastUpdated\":\"2025-07-07T00:35:50.847427\"},{\"id\":\"ffd362c2-74e6-4639-a0bd-46a959e5c453\",\"name\":\"Impressora 391\",\"model\":\"Handcrafted Cotton Shirt\",\"location\":\"924 - Maple Close - Stockton\",\"status\":\"OFFLINE\",\"paperCapacity\":377,\"createdAt\":\"2025-07-07T00:00:00.191\",\"lastUpdated\":\"2025-07-07T00:35:58.29212\"},{\"id\":\"3a0efbcf-06e1-4398-bc12-b067b53e606d\",\"name\":\"Impressora 597\",\"model\":\"Handcrafted Plastic Cheese\",\"location\":\"9506 - Runolfsdottir Underpass - Kshlerinville\",\"status\":\"OFFLINE\",\"paperCapacity\":330,\"createdAt\":\"2025-07-07T00:00:00.191\",\"lastUpdated\":\"2025-07-07T00:36:13.612059\"},{\"id\":\"3c934e12-9ae0-43c7-8a3b-067e449022ac\",\"name\":\"Impressora 329\",\"model\":\"Soft Plastic Tuna\",\"location\":\"733 - Larkin Stravenue - Sammieberg\",\"status\":\"ONLINE\",\"paperCapacity\":192,\"createdAt\":\"2025-07-07T00:00:00.191\",\"lastUpdated\":\"2025-07-07T00:36:14.009453\"},{\"id\":\"0249ed69-aa94-4cb9-8c50-0ca89c8baf03\",\"name\":\"Impressora 974\",\"model\":\"Electronic Gold Mouse\",\"location\":\"43367 - Cross Lane - South Eldred\",\"status\":\"ONLINE\",\"paperCapacity\":167,\"createdAt\":\"2025-07-07T00:00:00.191\",\"lastUpdated\":\"2025-07-07T00:36:12.728663\"},{\"id\":\"0213720a-020b-4960-9b9b-561ab4b56348\",\"name\":\"Impressora 642\",\"model\":\"Frozen Aluminum Table\",\"location\":\"51097 - Baker Street - Nelsontown\",\"status\":\"ONLINE\",\"paperCapacity\":137,\"createdAt\":\"2025-07-07T00:00:00.191\",\"lastUpdated\":\"2025-07-07T00:36:05.435995\"}],\"pageable\":{\"pageNumber\":0,\"pageSize\":20,\"sort\":{\"sorted\":false,\"empty\":true,\"unsorted\":true},\"offset\":0,\"paged\":true,\"unpaged\":false},\"totalPages\":9,\"totalElements\":179,\"last\":false,\"size\":20,\"number\":0,\"sort\":{\"sorted\":false,\"empty\":true,\"unsorted\":true},\"numberOfElements\":20,\"first\":true,\"empty\":false}"
					},
					"redirectURL": "",
					"headersSize": -1,
					"bodySize": -1
				},
				"cache": {},
				"timings": {
					"blocked": -1,
					"dns": -1,
					"connect": -1,
					"send": 0,
					"wait": 85.04100000000001,
					"receive": 0,
					"ssl": -1
				},
				"comment": "Get Impressoras"
			},
			{
				"startedDateTime": "2025-07-07T00:45:21.575Z",
				"time": 492.259,
				"request": {
					"method": "POST",
					"url": "http://localhost:8080/api/auth/login",
					"httpVersion": "HTTP/1.1",
					"cookies": [
						{
							"name": "JSESSIONID",
							"value": "9618481D48B85B41668ABF29AE897C90",
							"path": "/",
							"domain": "localhost",
							"httpOnly": true
						}
					],
					"headers": [
						{
							"name": "Content-Type",
							"value": "application/json"
						},
						{
							"name": "User-Agent",
							"value": "insomnia/11.2.0"
						}
					],
					"queryString": [],
					"postData": {
						"mimeType": "application/json",
						"text": "{\n  \"username\": \"admin\",\n  \"password\": \"admin123\"\n}"
					},
					"headersSize": -1,
					"bodySize": -1
				},
				"response": {
					"status": 200,
					"statusText": "",
					"httpVersion": "HTTP/1.1",
					"cookies": [],
					"headers": [
						{
							"name": "Vary",
							"value": "Origin"
						},
						{
							"name": "Vary",
							"value": "Access-Control-Request-Method"
						},
						{
							"name": "Vary",
							"value": "Access-Control-Request-Headers"
						},
						{
							"name": "X-Content-Type-Options",
							"value": "nosniff"
						},
						{
							"name": "X-XSS-Protection",
							"value": "0"
						},
						{
							"name": "Cache-Control",
							"value": "no-cache, no-store, max-age=0, must-revalidate"
						},
						{
							"name": "Pragma",
							"value": "no-cache"
						},
						{
							"name": "Expires",
							"value": "0"
						},
						{
							"name": "X-Frame-Options",
							"value": "DENY"
						},
						{
							"name": "Content-Type",
							"value": "text/plain;charset=UTF-8"
						},
						{
							"name": "Content-Length",
							"value": "207"
						},
						{
							"name": "Date",
							"value": "Mon, 07 Jul 2025 00:37:17 GMT"
						}
					],
					"content": {
						"size": 207,
						"mimeType": "text/plain;charset=UTF-8",
						"text": "{\"token\": \"eyJhbGciOiJIUzUxMiJ9.eyJzdWIiOiJhZG1pbiIsInJvbGUiOiJBRE1JTiIsImlhdCI6MTc1MTg0ODYzNywiZXhwIjoxNzUxOTM1MDM3fQ.Q8-Qb8XOMcJ704zSJZqZxP2DAF2Xo-bVZbqP43TU0ErETxhvH4yOZOy2SbgdXQ0Rn8uk_QXs3GMFuyL6VKbHGQ\"}"
					},
					"redirectURL": "",
					"headersSize": -1,
					"bodySize": -1
				},
				"cache": {},
				"timings": {
					"blocked": -1,
					"dns": -1,
					"connect": -1,
					"send": 0,
					"wait": 492.259,
					"receive": 0,
					"ssl": -1
				},
				"comment": "Login"
			}
		]
	}
}